l
20
1-11
2-10,11
3-6
4-13,14,15,18
5-11,13
6-3,9,11,12,13
7-7,9,10,12,13,14,16,18
8-8,9,10,12,16
9-6,7,8,11,13,15,18
10-2,7,8,16,17
11-1,2,5,6,9,13,14
12-6,7,8,17
13-4,5,6,7,9,11,14
14-4,7,11,13,15
15-4,9,14
16-7,8,10
17-10,12
18-4,7,9